C:\Users\USUARIO\Desktop\examen tercer parcial\caluOP\src\main\java\com\mycompany\caluop\diViSion.java
C:\Users\USUARIO\Desktop\examen tercer parcial\caluOP\src\main\java\com\mycompany\caluop\venTanaCalculadora.java
C:\Users\USUARIO\Desktop\examen tercer parcial\caluOP\src\main\java\com\mycompany\caluop\muLTiplicasion.java
C:\Users\USUARIO\Desktop\examen tercer parcial\caluOP\src\main\java\com\mycompany\caluop\CalculadoraGUI.java
C:\Users\USUARIO\Desktop\examen tercer parcial\caluOP\src\main\java\com\mycompany\caluop\reSta.java
C:\Users\USUARIO\Desktop\examen tercer parcial\caluOP\src\main\java\com\mycompany\caluop\sUma.java
